{"docs":[{"createdAt":"2025-11-28T16:19:23.702Z","updatedAt":"2025-12-10T09:24:08.425Z","name":"BINGO ORIGINAL SALT","category":{"createdAt":"2025-10-25T12:45:31.651Z","updatedAt":"2025-11-20T11:38:56.781Z","name":"LAYS","isBilling":true,"isCake":false,"isStock":true,"company":[{"createdAt":"2025-10-25T10:51:45.016Z","updatedAt":"2025-11-05T16:57:26.326Z","name":"Blackforest Cakes","id":"68fcabc113ce32e6595e46ba"},{"createdAt":"2025-10-25T10:52:41.565Z","updatedAt":"2025-10-25T10:52:41.565Z","name":"Thoothukudi Macroon","id":"68fcabf913ce32e6595e46cc"},{"createdAt":"2025-10-26T18:25:08.390Z","updatedAt":"2025-11-10T02:41:42.143Z","name":"VSeyal","id":"68fe6784b80e59c6ded81200"}],"image":{"createdAt":"2025-10-25T13:56:22.584Z","updatedAt":"2025-10-25T13:56:22.584Z","alt":"LAYS","prefix":"categories/","filename":"LAYS.jfif","mimeType":"image/jpeg","filesize":124034,"width":736,"height":1262,"focalX":50,"focalY":50,"id":"68fcd7062b48e962f52aa6db","sizes":{"thumbnail":{"url":null}},"url":"/api/media/file/LAYS.jfif","thumbnailURL":null},"id":"68fcc66bece3560601e1a3a0"},"images":[{"image":{"createdAt":"2025-11-28T16:19:05.856Z","updatedAt":"2025-11-28T16:19:05.856Z","prefix":"products/","filename":"WhatsApp Image 2025-11-28 at 8.07.59 PM.jpeg","mimeType":"image/jpeg","filesize":120900,"width":1080,"height":1281,"focalX":50,"focalY":50,"sizes":{"thumbnail":{"width":400,"height":300,"mimeType":"image/jpeg","filesize":24168,"filename":"WhatsApp Image 2025-11-28 at 8.07.59 PM-400x300.jpg","url":"/api/media/file/WhatsApp%20Image%202025-11-28%20at%208.07.59%20PM-400x300.jpg"}},"id":"6929cb79c9dab871026d616d","url":"/api/media/file/WhatsApp%20Image%202025-11-28%20at%208.07.59%20PM.jpeg","thumbnailURL":"/api/media/file/WhatsApp%20Image%202025-11-28%20at%208.07.59%20PM-400x300.jpg"},"id":"6929cb532a6a5754bb576109"}],"productId":"01153","upc":"8901234011539","isVeg":false,"isAvailable":true,"defaultPriceDetails":{"price":10,"rate":10,"quantity":1,"unit":"pcs","gst":"0"},"branchOverrides":[],"id":"6929cb8bda14ded995904114"}],"totalDocs":20,"limit":1,"totalPages":20,"page":1,"pagingCounter":1,"hasPrevPage":false,"hasNextPage":true,"prevPage":null,"nextPage":2}