{"docs":[{"createdAt":"2025-12-30T08:53:33.714Z","updatedAt":"2025-12-30T08:53:33.714Z","name":"PACKED CHEESE CAKE","category":{"createdAt":"2025-10-25T11:52:02.797Z","updatedAt":"2025-10-25T14:12:51.153Z","name":"DESSERTS","isBilling":true,"isCake":false,"isStock":true,"company":[{"createdAt":"2025-10-25T10:51:45.016Z","updatedAt":"2025-11-05T16:57:26.326Z","name":"Blackforest Cakes","id":"68fcabc113ce32e6595e46ba"},{"createdAt":"2025-10-25T10:52:41.565Z","updatedAt":"2025-10-25T10:52:41.565Z","name":"Thoothukudi Macroon","id":"68fcabf913ce32e6595e46cc"}],"department":{"createdAt":"2025-10-25T10:53:24.618Z","updatedAt":"2025-10-25T10:53:24.618Z","company":["68fcabc113ce32e6595e46ba","68fcabf913ce32e6595e46cc","68fcac0b13ce32e6595e46cf"],"name":"Icing","id":"68fcac2413ce32e6595e46df"},"image":{"createdAt":"2025-10-25T14:12:48.941Z","updatedAt":"2025-10-25T14:12:48.941Z","alt":"DESSERTS","prefix":"categories/","filename":"DESSERTS.jfif","mimeType":"image/jpeg","filesize":94960,"width":736,"height":981,"focalX":50,"focalY":50,"id":"68fcdae0da36b3297abf0896","sizes":{"thumbnail":{"url":null}},"url":"/api/media/file/DESSERTS.jfif","thumbnailURL":null},"id":"68fcb9e213ce32e6595e4a26"},"dealer":"68ff6ffc6805172abf18e534","images":[{"image":{"createdAt":"2025-12-30T08:53:25.903Z","updatedAt":"2025-12-30T08:53:25.903Z","alt":"PACKED CHEESE CAKE","prefix":"products/","filename":"PACKED CHEESE CAKE.jpeg","mimeType":"image/jpeg","filesize":6574,"width":222,"height":135,"focalX":50,"focalY":50,"sizes":{"thumbnail":{"width":null,"height":null,"mimeType":null,"filesize":null,"filename":null,"url":null}},"id":"6953930522f76cb1cdf8aab7","url":"/api/media/file/PACKED%20CHEESE%20CAKE.jpeg","thumbnailURL":null},"id":"695392f29faeb090ce1cc401"}],"productId":"01181","upc":"8901234011812","isVeg":false,"isAvailable":true,"defaultPriceDetails":{"price":119,"rate":119,"offer":0,"quantity":1,"unit":"pcs","gst":"0"},"branchOverrides":[],"id":"6953930df0a05430722c783d"}],"totalDocs":1177,"limit":1,"totalPages":1177,"page":1,"pagingCounter":1,"hasPrevPage":false,"hasNextPage":true,"prevPage":null,"nextPage":2}